<svg 
    xmlns="http://www.w3.org/2000/svg" 
    viewBox="0 0 150.04 171.59"
>
    <defs>
        <style>.cls-1{fill:#aa3318;}.cls-2{fill:#1eab7f;}.cls-3{fill:#70c1a8;}</style>
    </defs>
    <title>Fichier 3</title>
    <g id="Calque_2" data-name="Calque 2">
        <g id="Calque_4" data-name="Calque 4">
            <rect class="cls-1" x="64.24" y="100.48" width="91.14" height="10.77" rx="5.38" transform="translate(151.97 252.45) rotate(-150)"/>
            <rect class="cls-1" x="-5.31" y="140.78" width="90.83" height="10.77" rx="5.38" transform="translate(1.75 292.81) rotate(-150)"/>
            <rect class="cls-1" x="64.28" y="140.71" width="91.05" height="10.77" rx="5.38" transform="translate(-58.33 74.48) rotate(-30)"/>
            <rect class="cls-1" x="-5.36" y="20.09" width="91.05" height="10.77" rx="5.38" transform="matrix(0.87, -0.5, 0.5, 0.87, -7.35, 23.5)"/>
            <rect class="cls-1" x="64.24" y="20.09" width="91.14" height="10.77" rx="5.38" transform="translate(192.16 102.45) rotate(-150)"/>
            <rect class="cls-2" x="99.08" y="80.38" width="91.14" height="10.77" rx="5.38" transform="translate(58.89 230.41) rotate(-90)"/>
            <rect class="cls-2" x="-40.26" y="80.45" width="91.32" height="10.77" rx="5.38" transform="translate(-80.44 91.24) rotate(-90)"/>
            <rect class="cls-3" x="-5.35" y="60.16" width="90.64" height="10.77" rx="5.38" transform="translate(41.82 142.3) rotate(-150)"/>
            <rect class="cls-3" x="64.7" y="60.16" width="90.64" height="10.77" rx="5.38" transform="translate(-18.03 63.79) rotate(-30)"/>
            <rect class="cls-3" x="29.26" y="120.64" width="91.14" height="10.77" rx="5.38" transform="translate(-51.19 200.86) rotate(-90)"/>
        </g>
    </g>
</svg>